2016-01-30 10:46:07.8538|Trace|Opened connection at 30/01/2016 10:46:07 AM +01:00

2016-01-30 10:46:07.8738|Trace|SELECT 
    [Extent1].[ID] AS [ID], 
    [Extent1].[FirstName] AS [FirstName], 
    [Extent1].[LastName] AS [LastName], 
    [Extent1].[Card] AS [Card], 
    [Extent1].[Address] AS [Address], 
    [Extent1].[Contract] AS [Contract], 
    [Extent1].[Timestamp] AS [Timestamp]
    FROM [dbo].[Brokers] AS [Extent1]
2016-01-30 10:46:07.8738|Trace|

2016-01-30 10:46:07.8738|Trace|-- Executing at 30/01/2016 10:46:07 AM +01:00

2016-01-30 10:46:07.8808|Trace|-- Completed in 2 ms with result: SqlDataReader

2016-01-30 10:46:07.8808|Trace|

2016-01-30 10:46:07.8808|Trace|Closed connection at 30/01/2016 10:46:07 AM +01:00

2016-01-30 10:46:15.9904|Trace|Opened connection at 30/01/2016 10:46:15 AM +01:00

2016-01-30 10:46:15.9904|Trace|SELECT 
    [Extent1].[ID] AS [ID], 
    [Extent1].[FirstName] AS [FirstName], 
    [Extent1].[LastName] AS [LastName], 
    [Extent1].[Card] AS [Card], 
    [Extent1].[Address] AS [Address], 
    [Extent1].[Contract] AS [Contract], 
    [Extent1].[Timestamp] AS [Timestamp]
    FROM [dbo].[Brokers] AS [Extent1]
2016-01-30 10:46:15.9904|Trace|

2016-01-30 10:46:15.9904|Trace|-- Executing at 30/01/2016 10:46:15 AM +01:00

2016-01-30 10:46:15.9904|Trace|-- Completed in 0 ms with result: SqlDataReader

2016-01-30 10:46:15.9904|Trace|

2016-01-30 10:46:15.9904|Trace|Closed connection at 30/01/2016 10:46:15 AM +01:00

2016-01-30 10:46:15.9904|Trace|Opened connection at 30/01/2016 10:46:16 AM +01:00

2016-01-30 10:46:16.0074|Trace|SELECT 
    [Extent1].[ID] AS [ID]
    FROM [dbo].[Products] AS [Extent1]
    WHERE [Extent1].[BrokerID] = @p__linq__0
2016-01-30 10:46:16.0074|Trace|

2016-01-30 10:46:16.0074|Trace|-- p__linq__0: '15' (Type = Int32, IsNullable = false)

2016-01-30 10:46:16.0074|Trace|-- Executing at 30/01/2016 10:46:16 AM +01:00

2016-01-30 10:46:16.0074|Trace|-- Completed in 2 ms with result: SqlDataReader

2016-01-30 10:46:16.0074|Trace|

2016-01-30 10:46:16.0074|Trace|Closed connection at 30/01/2016 10:46:16 AM +01:00

2016-01-30 10:46:16.0074|Trace|Opened connection at 30/01/2016 10:46:16 AM +01:00

2016-01-30 10:46:16.0519|Trace|SELECT 
    [Extent1].[ID] AS [ID], 
    [Extent1].[ProductID] AS [ProductID], 
    [Extent1].[Quantity] AS [Quantity], 
    [Extent1].[SoldPrice] AS [SoldPrice], 
    [Extent1].[SoldDate] AS [SoldDate], 
    [Extent1].[Timestamp] AS [Timestamp]
    FROM [dbo].[SoldProducts] AS [Extent1]
    WHERE [Extent1].[ProductID] IN (11, 12)
2016-01-30 10:46:16.0519|Trace|

2016-01-30 10:46:16.0519|Trace|-- Executing at 30/01/2016 10:46:16 AM +01:00

2016-01-30 10:46:16.0519|Trace|-- Completed in 3 ms with result: SqlDataReader

2016-01-30 10:46:16.0519|Trace|

2016-01-30 10:46:16.0519|Trace|Closed connection at 30/01/2016 10:46:16 AM +01:00

2016-01-30 10:46:16.0519|Trace|Opened connection at 30/01/2016 10:46:16 AM +01:00

2016-01-30 10:46:16.0519|Trace|SELECT TOP (1) 
    [Extent1].[ID] AS [ID], 
    [Extent1].[FirstName] AS [FirstName], 
    [Extent1].[LastName] AS [LastName], 
    [Extent1].[Card] AS [Card], 
    [Extent1].[Address] AS [Address], 
    [Extent1].[Contract] AS [Contract], 
    [Extent1].[Timestamp] AS [Timestamp]
    FROM [dbo].[Brokers] AS [Extent1]
    WHERE [Extent1].[ID] = @p__linq__0
2016-01-30 10:46:16.0519|Trace|

2016-01-30 10:46:16.0519|Trace|-- p__linq__0: '15' (Type = Int32, IsNullable = false)

2016-01-30 10:46:16.0519|Trace|-- Executing at 30/01/2016 10:46:16 AM +01:00

2016-01-30 10:46:16.0519|Trace|-- Completed in 1 ms with result: SqlDataReader

2016-01-30 10:46:16.0519|Trace|

2016-01-30 10:46:16.0519|Trace|Closed connection at 30/01/2016 10:46:16 AM +01:00

2016-01-30 10:46:25.3910|Trace|Opened connection at 30/01/2016 10:46:25 AM +01:00

2016-01-30 10:46:25.3910|Trace|SELECT 
    [Extent1].[ID] AS [ID], 
    [Extent1].[FirstName] AS [FirstName], 
    [Extent1].[LastName] AS [LastName], 
    [Extent1].[Card] AS [Card], 
    [Extent1].[Address] AS [Address], 
    [Extent1].[Contract] AS [Contract], 
    [Extent1].[Timestamp] AS [Timestamp]
    FROM [dbo].[Brokers] AS [Extent1]
2016-01-30 10:46:25.3910|Trace|

2016-01-30 10:46:25.3910|Trace|-- Executing at 30/01/2016 10:46:25 AM +01:00

2016-01-30 10:46:25.3910|Trace|-- Completed in 0 ms with result: SqlDataReader

2016-01-30 10:46:25.3910|Trace|

2016-01-30 10:46:25.3910|Trace|Closed connection at 30/01/2016 10:46:25 AM +01:00

2016-01-30 10:46:32.0506|Trace|Opened connection at 30/01/2016 10:46:32 AM +01:00

2016-01-30 10:46:32.0776|Trace|SELECT 
    CASE WHEN ( EXISTS (SELECT 
        1 AS [C1]
        FROM [dbo].[Brokers] AS [Extent1]
    )) THEN cast(1 as bit) ELSE cast(0 as bit) END AS [C1]
    FROM  ( SELECT 1 AS X ) AS [SingleRowTable1]
2016-01-30 10:46:32.0776|Trace|

2016-01-30 10:46:32.0776|Trace|-- Executing at 30/01/2016 10:46:32 AM +01:00

2016-01-30 10:46:32.0806|Trace|-- Completed in 2 ms with result: SqlDataReader

2016-01-30 10:46:32.0806|Trace|

2016-01-30 10:46:32.0806|Trace|Closed connection at 30/01/2016 10:46:32 AM +01:00

2016-01-30 10:46:32.0806|Trace|Opened connection at 30/01/2016 10:46:32 AM +01:00

2016-01-30 10:46:32.0806|Trace|SELECT 
    [GroupBy1].[A1] AS [C1]
    FROM ( SELECT 
        MAX([Extent1].[Contract]) AS [A1]
        FROM [dbo].[Brokers] AS [Extent1]
    )  AS [GroupBy1]
2016-01-30 10:46:32.0806|Trace|

2016-01-30 10:46:32.0806|Trace|-- Executing at 30/01/2016 10:46:32 AM +01:00

2016-01-30 10:46:32.0966|Trace|-- Completed in 2 ms with result: SqlDataReader

2016-01-30 10:46:32.0966|Trace|

2016-01-30 10:46:32.0966|Trace|Closed connection at 30/01/2016 10:46:32 AM +01:00

2016-01-30 10:46:38.7240|Trace|Opened connection at 30/01/2016 10:46:38 AM +01:00

2016-01-30 10:46:38.7240|Trace|SELECT 
    [Extent1].[ID] AS [ID], 
    [Extent1].[FirstName] AS [FirstName], 
    [Extent1].[LastName] AS [LastName], 
    [Extent1].[Card] AS [Card], 
    [Extent1].[Address] AS [Address], 
    [Extent1].[Contract] AS [Contract], 
    [Extent1].[Timestamp] AS [Timestamp]
    FROM [dbo].[Brokers] AS [Extent1]
2016-01-30 10:46:38.7240|Trace|

2016-01-30 10:46:38.7240|Trace|-- Executing at 30/01/2016 10:46:38 AM +01:00

2016-01-30 10:46:38.7240|Trace|-- Completed in 1 ms with result: SqlDataReader

2016-01-30 10:46:38.7240|Trace|

2016-01-30 10:46:38.7240|Trace|Closed connection at 30/01/2016 10:46:38 AM +01:00

2016-01-30 10:46:41.3586|Trace|Opened connection at 30/01/2016 10:46:41 AM +01:00

2016-01-30 10:46:41.3756|Trace|SELECT 
    [Extent1].[ID] AS [ID], 
    [Extent1].[Name] AS [Name], 
    [Extent1].[StartNumber] AS [StartNumber], 
    [Extent1].[EndNumber] AS [EndNumber], 
    [Extent1].[Timestamp] AS [Timestamp]
    FROM [dbo].[ProductCategories] AS [Extent1]
2016-01-30 10:46:41.3756|Trace|

2016-01-30 10:46:41.3756|Trace|-- Executing at 30/01/2016 10:46:41 AM +01:00

2016-01-30 10:46:41.3776|Trace|-- Completed in 2 ms with result: SqlDataReader

2016-01-30 10:46:41.3776|Trace|

2016-01-30 10:46:41.3776|Trace|Closed connection at 30/01/2016 10:46:41 AM +01:00

2016-01-30 10:46:41.3776|Trace|Opened connection at 30/01/2016 10:46:41 AM +01:00

2016-01-30 10:46:41.4136|Trace|SELECT 
    [Extent1].[ID] AS [ID], 
    [Extent1].[CatalogNumber] AS [CatalogNumber], 
    [Extent1].[Quantity] AS [Quantity], 
    [Extent1].[OrgPrice] AS [OrgPrice], 
    [Extent1].[DiscountPrice] AS [DiscountPrice], 
    [Extent1].[SaleDate] AS [SaleDate], 
    [Extent1].[Comments] AS [Comments], 
    [Extent1].[BrokerID] AS [BrokerID], 
    [Extent1].[ProductCategoryID] AS [ProductCategoryID], 
    [Extent1].[Timestamp] AS [Timestamp]
    FROM [dbo].[Products] AS [Extent1]
    WHERE [Extent1].[BrokerID] = @p__linq__0
2016-01-30 10:46:41.4136|Trace|

2016-01-30 10:46:41.4136|Trace|-- p__linq__0: '9' (Type = Int32, IsNullable = false)

2016-01-30 10:46:41.4136|Trace|-- Executing at 30/01/2016 10:46:41 AM +01:00

2016-01-30 10:46:41.4136|Trace|-- Completed in 3 ms with result: SqlDataReader

2016-01-30 10:46:41.4136|Trace|

2016-01-30 10:46:41.4136|Trace|Closed connection at 30/01/2016 10:46:41 AM +01:00

2016-01-30 10:46:41.4136|Trace|Opened connection at 30/01/2016 10:46:41 AM +01:00

2016-01-30 10:46:41.4136|Trace|SELECT TOP (1) 
    [Extent1].[ID] AS [ID], 
    [Extent1].[FirstName] AS [FirstName], 
    [Extent1].[LastName] AS [LastName], 
    [Extent1].[Card] AS [Card], 
    [Extent1].[Address] AS [Address], 
    [Extent1].[Contract] AS [Contract], 
    [Extent1].[Timestamp] AS [Timestamp]
    FROM [dbo].[Brokers] AS [Extent1]
    WHERE [Extent1].[ID] = @p__linq__0
2016-01-30 10:46:41.4136|Trace|

2016-01-30 10:46:41.4136|Trace|-- p__linq__0: '9' (Type = Int32, IsNullable = false)

2016-01-30 10:46:41.4136|Trace|-- Executing at 30/01/2016 10:46:41 AM +01:00

2016-01-30 10:46:41.4136|Trace|-- Completed in 1 ms with result: SqlDataReader

2016-01-30 10:46:41.4136|Trace|

2016-01-30 10:46:41.4136|Trace|Closed connection at 30/01/2016 10:46:41 AM +01:00

2016-01-30 10:46:48.0219|Trace|Opened connection at 30/01/2016 10:46:48 AM +01:00

2016-01-30 10:46:48.0219|Trace|SELECT TOP (1) 
    [c].[ID] AS [ID], 
    [c].[Name] AS [Name], 
    [c].[Address] AS [Address]
    FROM [dbo].[StoreSettings] AS [c]
2016-01-30 10:46:48.0219|Trace|

2016-01-30 10:46:48.0219|Trace|-- Executing at 30/01/2016 10:46:48 AM +01:00

2016-01-30 10:46:48.0349|Trace|-- Completed in 2 ms with result: SqlDataReader

2016-01-30 10:46:48.0349|Trace|

2016-01-30 10:46:48.0349|Trace|Closed connection at 30/01/2016 10:46:48 AM +01:00

2016-01-30 10:46:57.9092|Trace|Opened connection at 30/01/2016 10:46:57 AM +01:00

2016-01-30 10:46:57.9092|Trace|SELECT 
    [Extent1].[ID] AS [ID], 
    [Extent1].[Name] AS [Name], 
    [Extent1].[StartNumber] AS [StartNumber], 
    [Extent1].[EndNumber] AS [EndNumber], 
    [Extent1].[Timestamp] AS [Timestamp]
    FROM [dbo].[ProductCategories] AS [Extent1]
2016-01-30 10:46:57.9092|Trace|

2016-01-30 10:46:57.9092|Trace|-- Executing at 30/01/2016 10:46:57 AM +01:00

2016-01-30 10:46:57.9092|Trace|-- Completed in 0 ms with result: SqlDataReader

2016-01-30 10:46:57.9092|Trace|

2016-01-30 10:46:57.9092|Trace|Closed connection at 30/01/2016 10:46:57 AM +01:00

